{
  "$schema": "https://docs.renovatebot.com/renovate-schema.json",
  "extends": [
    "gitlab>gitlab-com/gl-infra/common-ci-tasks:renovate-common",
    "gitlab>gitlab-com/gl-infra/common-ci-tasks:renovate-versions-gitlab-com"
  ],
  "reviewersSampleSize": 3,
  "additionalReviewers": [
    "andrewn",
    "f_santos",
    "jarv",
    "mwasilewski-gitlab",
    "pguinoiseau",
    "reprazent",
    "smcgivern",
    "steveazz"
  ]
}
